,load_2,base_2,low_flex_2,high_flex_2,sum,,,
01/01/2015 00:00,124.622,74.7732,37.3866,12.4622,124.622,0.6,0.3,0.1
01/01/2015 01:00,130.746,78.4476,39.2238,13.0746,130.746,,,
01/01/2015 02:00,131.494,78.8964,39.4482,13.1494,131.494,,,
01/01/2015 03:00,131.882,79.1292,39.5646,13.1882,131.882,,,
01/01/2015 04:00,134.566,80.7396,40.3698,13.4566,134.566,,,
01/01/2015 05:00,132.982,79.7892,39.8946,13.2982,132.982,,,
01/01/2015 06:00,131.152,78.6912,39.3456,13.1152,131.152,,,
01/01/2015 07:00,128.702,77.2212,38.6106,12.8702,128.702,,,
01/01/2015 08:00,126.954,76.1724,38.0862,12.6954,126.954,,,
01/01/2015 09:00,123.7,74.22,37.11,12.37,123.7,,,
01/01/2015 10:00,123.494,74.0964,37.0482,12.3494,123.494,,,
01/01/2015 11:00,127.874,76.7244,38.3622,12.7874,127.874,,,
01/01/2015 12:00,133.748,80.2488,40.1244,13.3748,133.748,,,
01/01/2015 13:00,126.252,75.7512,37.8756,12.6252,126.252,,,
01/01/2015 14:00,118.422,71.0532,35.5266,11.8422,118.422,,,
01/01/2015 15:00,111.79,67.074,33.537,11.179,111.79,,,
01/01/2015 16:00,101.918,61.1508,30.5754,10.1918,101.918,,,
01/01/2015 17:00,95.778,57.4668,28.7334,9.5778,95.778,,,
01/01/2015 18:00,91.976,55.1856,27.5928,9.1976,91.976,,,
01/01/2015 19:00,90.754,54.4524,27.2262,9.0754,90.754,,,
01/01/2015 20:00,91.826,55.0956,27.5478,9.1826,91.826,,,
01/01/2015 21:00,95.258,57.1548,28.5774,9.5258,95.258,,,
01/01/2015 22:00,102.39,61.434,30.717,10.239,102.39,,,
01/01/2015 23:00,115.836,69.5016,34.7508,11.5836,115.836,,,
02/01/2015 00:00,126.568,75.9408,37.9704,12.6568,126.568,,,
02/01/2015 01:00,130.92,78.552,39.276,13.092,130.92,,,
02/01/2015 02:00,131.144,78.6864,39.3432,13.1144,131.144,,,
02/01/2015 03:00,133.966,80.3796,40.1898,13.3966,133.966,,,
02/01/2015 04:00,136.276,81.7656,40.8828,13.6276,136.276,,,
02/01/2015 05:00,134.654,80.7924,40.3962,13.4654,134.654,,,
02/01/2015 06:00,133.066,79.8396,39.9198,13.3066,133.066,,,
02/01/2015 07:00,130.674,78.4044,39.2022,13.0674,130.674,,,
02/01/2015 08:00,128.29,76.974,38.487,12.829,128.29,,,
02/01/2015 09:00,124.704,74.8224,37.4112,12.4704,124.704,,,
02/01/2015 10:00,124.624,74.7744,37.3872,12.4624,124.624,,,
02/01/2015 11:00,128.728,77.2368,38.6184,12.8728,128.728,,,
02/01/2015 12:00,133.714,80.2284,40.1142,13.3714,133.714,,,
02/01/2015 13:00,126.532,75.9192,37.9596,12.6532,126.532,,,
02/01/2015 14:00,118.496,71.0976,35.5488,11.8496,118.496,,,
02/01/2015 15:00,111.582,66.9492,33.4746,11.1582,111.582,,,
02/01/2015 16:00,100.938,60.5628,30.2814,10.0938,100.938,,,
02/01/2015 17:00,94.932,56.9592,28.4796,9.4932,94.932,,,
02/01/2015 18:00,91.206,54.7236,27.3618,9.1206,91.206,,,
02/01/2015 19:00,89.268,53.5608,26.7804,8.9268,89.268,,,
02/01/2015 20:00,90.774,54.4644,27.2322,9.0774,90.774,,,
02/01/2015 21:00,94.6,56.76,28.38,9.46,94.6,,,
02/01/2015 22:00,101.66,60.996,30.498,10.166,101.66,,,
02/01/2015 23:00,114.996,68.9976,34.4988,11.4996,114.996,,,
03/01/2015 00:00,125.228,75.1368,37.5684,12.5228,125.228,,,
03/01/2015 01:00,130.028,78.0168,39.0084,13.0028,130.028,,,
03/01/2015 02:00,131.17,78.702,39.351,13.117,131.17,,,
03/01/2015 03:00,133.514,80.1084,40.0542,13.3514,133.514,,,
03/01/2015 04:00,135.744,81.4464,40.7232,13.5744,135.744,,,
03/01/2015 05:00,133.766,80.2596,40.1298,13.3766,133.766,,,
03/01/2015 06:00,132.528,79.5168,39.7584,13.2528,132.528,,,
03/01/2015 07:00,130.136,78.0816,39.0408,13.0136,130.136,,,
03/01/2015 08:00,127.52,76.512,38.256,12.752,127.52,,,
03/01/2015 09:00,124.918,74.9508,37.4754,12.4918,124.918,,,
03/01/2015 10:00,124.944,74.9664,37.4832,12.4944,124.944,,,
03/01/2015 11:00,129.568,77.7408,38.8704,12.9568,129.568,,,
03/01/2015 12:00,133.058,79.8348,39.9174,13.3058,133.058,,,
03/01/2015 13:00,124.494,74.6964,37.3482,12.4494,124.494,,,
03/01/2015 14:00,118.072,70.8432,35.4216,11.8072,118.072,,,
03/01/2015 15:00,111.006,66.6036,33.3018,11.1006,111.006,,,
03/01/2015 16:00,100.644,60.3864,30.1932,10.0644,100.644,,,
03/01/2015 17:00,94.474,56.6844,28.3422,9.4474,94.474,,,
03/01/2015 18:00,90.57,54.342,27.171,9.057,90.57,,,
03/01/2015 19:00,88.408,53.0448,26.5224,8.8408,88.408,,,
03/01/2015 20:00,89.66,53.796,26.898,8.966,89.66,,,
03/01/2015 21:00,93.904,56.3424,28.1712,9.3904,93.904,,,
03/01/2015 22:00,101.258,60.7548,30.3774,10.1258,101.258,,,
03/01/2015 23:00,115.594,69.3564,34.6782,11.5594,115.594,,,
04/01/2015 00:00,127.42,76.452,38.226,12.742,127.42,,,
04/01/2015 01:00,132.928,79.7568,39.8784,13.2928,132.928,,,
04/01/2015 02:00,135.422,81.2532,40.6266,13.5422,135.422,,,
04/01/2015 03:00,136.42,81.852,40.926,13.642,136.42,,,
04/01/2015 04:00,138.014,82.8084,41.4042,13.8014,138.014,,,
04/01/2015 05:00,135.996,81.5976,40.7988,13.5996,135.996,,,
04/01/2015 06:00,134.576,80.7456,40.3728,13.4576,134.576,,,
04/01/2015 07:00,132.61,79.566,39.783,13.261,132.61,,,
04/01/2015 08:00,130.93,78.558,39.279,13.093,130.93,,,
04/01/2015 09:00,128.376,77.0256,38.5128,12.8376,128.376,,,
04/01/2015 10:00,128.232,76.9392,38.4696,12.8232,128.232,,,
04/01/2015 11:00,131.428,78.8568,39.4284,13.1428,131.428,,,
04/01/2015 12:00,135.012,81.0072,40.5036,13.5012,135.012,,,
04/01/2015 13:00,126.96,76.176,38.088,12.696,126.96,,,
04/01/2015 14:00,119.308,71.5848,35.7924,11.9308,119.308,,,
04/01/2015 15:00,113.452,68.0712,34.0356,11.3452,113.452,,,
04/01/2015 16:00,104.312,62.5872,31.2936,10.4312,104.312,,,
04/01/2015 17:00,97.24,58.344,29.172,9.724,97.24,,,
04/01/2015 18:00,93.03,55.818,27.909,9.303,93.03,,,
04/01/2015 19:00,91.868,55.1208,27.5604,9.1868,91.868,,,
04/01/2015 20:00,93.24,55.944,27.972,9.324,93.24,,,
04/01/2015 21:00,95.244,57.1464,28.5732,9.5244,95.244,,,
04/01/2015 22:00,101.412,60.8472,30.4236,10.1412,101.412,,,
04/01/2015 23:00,114.158,68.4948,34.2474,11.4158,114.158,,,
05/01/2015 00:00,125.154,75.0924,37.5462,12.5154,125.154,,,
05/01/2015 01:00,129.018,77.4108,38.7054,12.9018,129.018,,,
05/01/2015 02:00,132.336,79.4016,39.7008,13.2336,132.336,,,
05/01/2015 03:00,137.22,82.332,41.166,13.722,137.22,,,
05/01/2015 04:00,141.088,84.6528,42.3264,14.1088,141.088,,,
05/01/2015 05:00,136.654,81.9924,40.9962,13.6654,136.654,,,
05/01/2015 06:00,133.158,79.8948,39.9474,13.3158,133.158,,,
05/01/2015 07:00,130.754,78.4524,39.2262,13.0754,130.754,,,
05/01/2015 08:00,127.856,76.7136,38.3568,12.7856,127.856,,,
05/01/2015 09:00,124.742,74.8452,37.4226,12.4742,124.742,,,
05/01/2015 10:00,125.198,75.1188,37.5594,12.5198,125.198,,,
05/01/2015 11:00,127.578,76.5468,38.2734,12.7578,127.578,,,
05/01/2015 12:00,129.942,77.9652,38.9826,12.9942,129.942,,,
05/01/2015 13:00,122.644,73.5864,36.7932,12.2644,122.644,,,
05/01/2015 14:00,114.52,68.712,34.356,11.452,114.52,,,
05/01/2015 15:00,109.74,65.844,32.922,10.974,109.74,,,
05/01/2015 16:00,101.074,60.6444,30.3222,10.1074,101.074,,,
05/01/2015 17:00,93.402,56.0412,28.0206,9.3402,93.402,,,
05/01/2015 18:00,89.45,53.67,26.835,8.945,89.45,,,
05/01/2015 19:00,87.036,52.2216,26.1108,8.7036,87.036,,,
05/01/2015 20:00,87.068,52.2408,26.1204,8.7068,87.068,,,
05/01/2015 21:00,87.596,52.5576,26.2788,8.7596,87.596,,,
05/01/2015 22:00,88.464,53.0784,26.5392,8.8464,88.464,,,
05/01/2015 23:00,88.08,52.848,26.424,8.808,88.08,,,
06/01/2015 00:00,94.916,56.9496,28.4748,9.4916,94.916,,,
06/01/2015 01:00,102.318,61.3908,30.6954,10.2318,102.318,,,
06/01/2015 02:00,108.674,65.2044,32.6022,10.8674,108.674,,,
06/01/2015 03:00,111.076,66.6456,33.3228,11.1076,111.076,,,
06/01/2015 04:00,111.69,67.014,33.507,11.169,111.69,,,
06/01/2015 05:00,109.644,65.7864,32.8932,10.9644,109.644,,,
06/01/2015 06:00,107.586,64.5516,32.2758,10.7586,107.586,,,
06/01/2015 07:00,104.172,62.5032,31.2516,10.4172,104.172,,,
06/01/2015 08:00,103.666,62.1996,31.0998,10.3666,103.666,,,
06/01/2015 09:00,102.408,61.4448,30.7224,10.2408,102.408,,,
06/01/2015 10:00,104.664,62.7984,31.3992,10.4664,104.664,,,
06/01/2015 11:00,109.696,65.8176,32.9088,10.9696,109.696,,,
06/01/2015 12:00,113.068,67.8408,33.9204,11.3068,113.068,,,
06/01/2015 13:00,105.968,63.5808,31.7904,10.5968,105.968,,,
06/01/2015 14:00,100.132,60.0792,30.0396,10.0132,100.132,,,
06/01/2015 15:00,97.446,58.4676,29.2338,9.7446,97.446,,,
06/01/2015 16:00,89.774,53.8644,26.9322,8.9774,89.774,,,
06/01/2015 17:00,82.914,49.7484,24.8742,8.2914,82.914,,,
06/01/2015 18:00,74.054,44.4324,22.2162,7.4054,74.054,,,
06/01/2015 19:00,76.398,45.8388,22.9194,7.6398,76.398,,,
06/01/2015 20:00,75.95,45.57,22.785,7.595,75.95,,,
06/01/2015 21:00,76.328,45.7968,22.8984,7.6328,76.328,,,
06/01/2015 22:00,76.762,46.0572,23.0286,7.6762,76.762,,,
06/01/2015 23:00,78.556,47.1336,23.5668,7.8556,78.556,,,
07/01/2015 00:00,84.094,50.4564,25.2282,8.4094,84.094,,,
07/01/2015 01:00,92.006,55.2036,27.6018,9.2006,92.006,,,
07/01/2015 02:00,97.444,58.4664,29.2332,9.7444,97.444,,,
07/01/2015 03:00,105.036,63.0216,31.5108,10.5036,105.036,,,
07/01/2015 04:00,105.762,63.4572,31.7286,10.5762,105.762,,,
07/01/2015 05:00,101.65,60.99,30.495,10.165,101.65,,,
07/01/2015 06:00,98.894,59.3364,29.6682,9.8894,98.894,,,
07/01/2015 07:00,97.406,58.4436,29.2218,9.7406,97.406,,,
07/01/2015 08:00,95.764,57.4584,28.7292,9.5764,95.764,,,
07/01/2015 09:00,96.04,57.624,28.812,9.604,96.04,,,
07/01/2015 10:00,102.654,61.5924,30.7962,10.2654,102.654,,,
07/01/2015 11:00,104.784,62.8704,31.4352,10.4784,104.784,,,
07/01/2015 12:00,107.028,64.2168,32.1084,10.7028,107.028,,,
07/01/2015 13:00,104.616,62.7696,31.3848,10.4616,104.616,,,
07/01/2015 14:00,104.264,62.5584,31.2792,10.4264,104.264,,,
07/01/2015 15:00,97.478,58.4868,29.2434,9.7478,97.478,,,
07/01/2015 16:00,90.072,54.0432,27.0216,9.0072,90.072,,,
07/01/2015 17:00,87.916,52.7496,26.3748,8.7916,87.916,,,
07/01/2015 18:00,86.494,51.8964,25.9482,8.6494,86.494,,,
07/01/2015 19:00,88.26,52.956,26.478,8.826,88.26,,,
07/01/2015 20:00,91.544,54.9264,27.4632,9.1544,91.544,,,
07/01/2015 21:00,98.848,59.3088,29.6544,9.8848,98.848,,,
07/01/2015 22:00,112.822,67.6932,33.8466,11.2822,112.822,,,
07/01/2015 23:00,125.248,75.1488,37.5744,12.5248,125.248,,,
08/01/2015 00:00,131.67,79.002,39.501,13.167,131.67,,,
08/01/2015 01:00,135.686,81.4116,40.7058,13.5686,135.686,,,
08/01/2015 02:00,138.494,83.0964,41.5482,13.8494,138.494,,,
08/01/2015 03:00,140.714,84.4284,42.2142,14.0714,140.714,,,
08/01/2015 04:00,139.582,83.7492,41.8746,13.9582,139.582,,,
08/01/2015 05:00,138.042,82.8252,41.4126,13.8042,138.042,,,
08/01/2015 06:00,136.518,81.9108,40.9554,13.6518,136.518,,,
08/01/2015 07:00,133.396,80.0376,40.0188,13.3396,133.396,,,
08/01/2015 08:00,129.504,77.7024,38.8512,12.9504,129.504,,,
08/01/2015 09:00,126.146,75.6876,37.8438,12.6146,126.146,,,
08/01/2015 10:00,126.272,75.7632,37.8816,12.6272,126.272,,,
08/01/2015 11:00,128.122,76.8732,38.4366,12.8122,128.122,,,
08/01/2015 12:00,129.292,77.5752,38.7876,12.9292,129.292,,,
08/01/2015 13:00,123.76,74.256,37.128,12.376,123.76,,,
08/01/2015 14:00,115.924,69.5544,34.7772,11.5924,115.924,,,
08/01/2015 15:00,106.426,63.8556,31.9278,10.6426,106.426,,,
08/01/2015 16:00,98.26,58.956,29.478,9.826,98.26,,,
08/01/2015 17:00,94.078,56.4468,28.2234,9.4078,94.078,,,
08/01/2015 18:00,93.52,56.112,28.056,9.352,93.52,,,
08/01/2015 19:00,93.896,56.3376,28.1688,9.3896,93.896,,,
08/01/2015 20:00,97.57,58.542,29.271,9.757,97.57,,,
08/01/2015 21:00,104.314,62.5884,31.2942,10.4314,104.314,,,
08/01/2015 22:00,116.696,70.0176,35.0088,11.6696,116.696,,,
08/01/2015 23:00,129.82,77.892,38.946,12.982,129.82,,,
09/01/2015 00:00,136.724,82.0344,41.0172,13.6724,136.724,,,
09/01/2015 01:00,138.86,83.316,41.658,13.886,138.86,,,
09/01/2015 02:00,141.24,84.744,42.372,14.124,141.24,,,
09/01/2015 03:00,143.324,85.9944,42.9972,14.3324,143.324,,,
09/01/2015 04:00,142.386,85.4316,42.7158,14.2386,142.386,,,
09/01/2015 05:00,141.642,84.9852,42.4926,14.1642,141.642,,,
09/01/2015 06:00,139.118,83.4708,41.7354,13.9118,139.118,,,
09/01/2015 07:00,136.28,81.768,40.884,13.628,136.28,,,
09/01/2015 08:00,131.412,78.8472,39.4236,13.1412,131.412,,,
09/01/2015 09:00,130.078,78.0468,39.0234,13.0078,130.078,,,
09/01/2015 10:00,128.89,77.334,38.667,12.889,128.89,,,
09/01/2015 11:00,129.964,77.9784,38.9892,12.9964,129.964,,,
09/01/2015 12:00,131.588,78.9528,39.4764,13.1588,131.588,,,
09/01/2015 13:00,126.99,76.194,38.097,12.699,126.99,,,
09/01/2015 14:00,119.616,71.7696,35.8848,11.9616,119.616,,,
09/01/2015 15:00,109.614,65.7684,32.8842,10.9614,109.614,,,
09/01/2015 16:00,101.13,60.678,30.339,10.113,101.13,,,
09/01/2015 17:00,97.004,58.2024,29.1012,9.7004,97.004,,,
09/01/2015 18:00,95.928,57.5568,28.7784,9.5928,95.928,,,
09/01/2015 19:00,96.99,58.194,29.097,9.699,96.99,,,
09/01/2015 20:00,99.868,59.9208,29.9604,9.9868,99.868,,,
09/01/2015 21:00,106.296,63.7776,31.8888,10.6296,106.296,,,
09/01/2015 22:00,118.33,70.998,35.499,11.833,118.33,,,
09/01/2015 23:00,128.256,76.9536,38.4768,12.8256,128.256,,,
10/01/2015 00:00,134.232,80.5392,40.2696,13.4232,134.232,,,
10/01/2015 01:00,137.696,82.6176,41.3088,13.7696,137.696,,,
10/01/2015 02:00,140.234,84.1404,42.0702,14.0234,140.234,,,
10/01/2015 03:00,143.216,85.9296,42.9648,14.3216,143.216,,,
10/01/2015 04:00,141.082,84.6492,42.3246,14.1082,141.082,,,
10/01/2015 05:00,137.282,82.3692,41.1846,13.7282,137.282,,,
10/01/2015 06:00,136.952,82.1712,41.0856,13.6952,136.952,,,
10/01/2015 07:00,134.884,80.9304,40.4652,13.4884,134.884,,,
10/01/2015 08:00,132.312,79.3872,39.6936,13.2312,132.312,,,
10/01/2015 09:00,129.438,77.6628,38.8314,12.9438,129.438,,,
10/01/2015 10:00,127.504,76.5024,38.2512,12.7504,127.504,,,
10/01/2015 11:00,128.408,77.0448,38.5224,12.8408,128.408,,,
10/01/2015 12:00,129.112,77.4672,38.7336,12.9112,129.112,,,
10/01/2015 13:00,121.518,72.9108,36.4554,12.1518,121.518,,,
10/01/2015 14:00,115.64,69.384,34.692,11.564,115.64,,,
10/01/2015 15:00,105.616,63.3696,31.6848,10.5616,105.616,,,
10/01/2015 16:00,93.914,56.3484,28.1742,9.3914,93.914,,,
10/01/2015 17:00,94.632,56.7792,28.3896,9.4632,94.632,,,
10/01/2015 18:00,92.994,55.7964,27.8982,9.2994,92.994,,,
10/01/2015 19:00,94.032,56.4192,28.2096,9.4032,94.032,,,
10/01/2015 20:00,96.724,58.0344,29.0172,9.6724,96.724,,,
10/01/2015 21:00,102.994,61.7964,30.8982,10.2994,102.994,,,
10/01/2015 22:00,116,69.6,34.8,11.6,116,,,
10/01/2015 23:00,126.508,75.9048,37.9524,12.6508,126.508,,,
11/01/2015 00:00,132.578,79.5468,39.7734,13.2578,132.578,,,
11/01/2015 01:00,134.922,80.9532,40.4766,13.4922,134.922,,,
11/01/2015 02:00,137.386,82.4316,41.2158,13.7386,137.386,,,
11/01/2015 03:00,139.144,83.4864,41.7432,13.9144,139.144,,,
11/01/2015 04:00,137.462,82.4772,41.2386,13.7462,137.462,,,
11/01/2015 05:00,134.684,80.8104,40.4052,13.4684,134.684,,,
11/01/2015 06:00,131.786,79.0716,39.5358,13.1786,131.786,,,
11/01/2015 07:00,129.37,77.622,38.811,12.937,129.37,,,
11/01/2015 08:00,126.304,75.7824,37.8912,12.6304,126.304,,,
11/01/2015 09:00,123.42,74.052,37.026,12.342,123.42,,,
11/01/2015 10:00,122.514,73.5084,36.7542,12.2514,122.514,,,
11/01/2015 11:00,121.8,73.08,36.54,12.18,121.8,,,
11/01/2015 12:00,121.044,72.6264,36.3132,12.1044,121.044,,,
11/01/2015 13:00,115.54,69.324,34.662,11.554,115.54,,,
11/01/2015 14:00,109.6,65.76,32.88,10.96,109.6,,,
11/01/2015 15:00,101.772,61.0632,30.5316,10.1772,101.772,,,
11/01/2015 16:00,94.258,56.5548,28.2774,9.4258,94.258,,,
11/01/2015 17:00,89.13,53.478,26.739,8.913,89.13,,,
11/01/2015 18:00,86.814,52.0884,26.0442,8.6814,86.814,,,
11/01/2015 19:00,85.876,51.5256,25.7628,8.5876,85.876,,,
11/01/2015 20:00,86.368,51.8208,25.9104,8.6368,86.368,,,
11/01/2015 21:00,84.488,50.6928,25.3464,8.4488,84.488,,,
11/01/2015 22:00,81.03,48.618,24.309,8.103,81.03,,,
11/01/2015 23:00,82.192,49.3152,24.6576,8.2192,82.192,,,
12/01/2015 00:00,88.44,53.064,26.532,8.844,88.44,,,
12/01/2015 01:00,95.112,57.0672,28.5336,9.5112,95.112,,,
12/01/2015 02:00,100.592,60.3552,30.1776,10.0592,100.592,,,
12/01/2015 03:00,105.074,63.0444,31.5222,10.5074,105.074,,,
12/01/2015 04:00,102.972,61.7832,30.8916,10.2972,102.972,,,
12/01/2015 05:00,98.36,59.016,29.508,9.836,98.36,,,
12/01/2015 06:00,94.69,56.814,28.407,9.469,94.69,,,
12/01/2015 07:00,91.894,55.1364,27.5682,9.1894,91.894,,,
12/01/2015 08:00,90.166,54.0996,27.0498,9.0166,90.166,,,
12/01/2015 09:00,91.264,54.7584,27.3792,9.1264,91.264,,,
12/01/2015 10:00,93.134,55.8804,27.9402,9.3134,93.134,,,
12/01/2015 11:00,94.384,56.6304,28.3152,9.4384,94.384,,,
12/01/2015 12:00,97.858,58.7148,29.3574,9.7858,97.858,,,
12/01/2015 13:00,95.21,57.126,28.563,9.521,95.21,,,
12/01/2015 14:00,93.602,56.1612,28.0806,9.3602,93.602,,,
12/01/2015 15:00,88.37,53.022,26.511,8.837,88.37,,,
12/01/2015 16:00,81.532,48.9192,24.4596,8.1532,81.532,,,
12/01/2015 17:00,77.534,46.5204,23.2602,7.7534,77.534,,,
12/01/2015 18:00,76.028,45.6168,22.8084,7.6028,76.028,,,
12/01/2015 19:00,75.888,45.5328,22.7664,7.5888,75.888,,,
12/01/2015 20:00,76.99,46.194,23.097,7.699,76.99,,,
12/01/2015 21:00,78.558,47.1348,23.5674,7.8558,78.558,,,
12/01/2015 22:00,79.828,47.8968,23.9484,7.9828,79.828,,,
12/01/2015 23:00,82.658,49.5948,24.7974,8.2658,82.658,,,
13/01/2015 00:00,89.724,53.8344,26.9172,8.9724,89.724,,,
13/01/2015 01:00,95.838,57.5028,28.7514,9.5838,95.838,,,
13/01/2015 02:00,99.776,59.8656,29.9328,9.9776,99.776,,,
13/01/2015 03:00,104.032,62.4192,31.2096,10.4032,104.032,,,
13/01/2015 04:00,104.122,62.4732,31.2366,10.4122,104.122,,,
13/01/2015 05:00,100.718,60.4308,30.2154,10.0718,100.718,,,
13/01/2015 06:00,97.254,58.3524,29.1762,9.7254,97.254,,,
13/01/2015 07:00,96.322,57.7932,28.8966,9.6322,96.322,,,
13/01/2015 08:00,95.078,57.0468,28.5234,9.5078,95.078,,,
13/01/2015 09:00,96.368,57.8208,28.9104,9.6368,96.368,,,
13/01/2015 10:00,97.944,58.7664,29.3832,9.7944,97.944,,,
13/01/2015 11:00,97.278,58.3668,29.1834,9.7278,97.278,,,
13/01/2015 12:00,97.596,58.5576,29.2788,9.7596,97.596,,,
13/01/2015 13:00,93.834,56.3004,28.1502,9.3834,93.834,,,
13/01/2015 14:00,91.584,54.9504,27.4752,9.1584,91.584,,,
13/01/2015 15:00,86.112,51.6672,25.8336,8.6112,86.112,,,
13/01/2015 16:00,79.812,47.8872,23.9436,7.9812,79.812,,,
13/01/2015 17:00,76.406,45.8436,22.9218,7.6406,76.406,,,
13/01/2015 18:00,74.67,44.802,22.401,7.467,74.67,,,
13/01/2015 19:00,73.884,44.3304,22.1652,7.3884,73.884,,,
13/01/2015 20:00,74.554,44.7324,22.3662,7.4554,74.554,,,
13/01/2015 21:00,80.206,48.1236,24.0618,8.0206,80.206,,,
13/01/2015 22:00,88.008,52.8048,26.4024,8.8008,88.008,,,
13/01/2015 23:00,92.224,55.3344,27.6672,9.2224,92.224,,,
14/01/2015 00:00,96.818,58.0908,29.0454,9.6818,96.818,,,
14/01/2015 01:00,95.86,57.516,28.758,9.586,95.86,,,
14/01/2015 02:00,91.65,54.99,27.495,9.165,91.65,,,
14/01/2015 03:00,89.018,53.4108,26.7054,8.9018,89.018,,,
14/01/2015 04:00,86.994,52.1964,26.0982,8.6994,86.994,,,
14/01/2015 05:00,85.968,51.5808,25.7904,8.5968,85.968,,,
14/01/2015 06:00,87.162,52.2972,26.1486,8.7162,87.162,,,
14/01/2015 07:00,89.622,53.7732,26.8866,8.9622,89.622,,,
14/01/2015 08:00,91.392,54.8352,27.4176,9.1392,91.392,,,
14/01/2015 09:00,95.722,57.4332,28.7166,9.5722,95.722,,,
14/01/2015 10:00,94.95,56.97,28.485,9.495,94.95,,,
14/01/2015 11:00,94.49,56.694,28.347,9.449,94.49,,,
14/01/2015 12:00,88.782,53.2692,26.6346,8.8782,88.782,,,
14/01/2015 13:00,83.246,49.9476,24.9738,8.3246,83.246,,,
14/01/2015 14:00,80.072,48.0432,24.0216,8.0072,80.072,,,
14/01/2015 15:00,79.12,47.472,23.736,7.912,79.12,,,
14/01/2015 16:00,80.422,48.2532,24.1266,8.0422,80.422,,,
14/01/2015 17:00,84.36,50.616,25.308,8.436,84.36,,,
14/01/2015 18:00,92.67,55.602,27.801,9.267,92.67,,,
14/01/2015 19:00,107.88,64.728,32.364,10.788,107.88,,,
14/01/2015 20:00,119.6,71.76,35.88,11.96,119.6,,,
14/01/2015 21:00,127.888,76.7328,38.3664,12.7888,127.888,,,
14/01/2015 22:00,130.858,78.5148,39.2574,13.0858,130.858,,,
14/01/2015 23:00,133.284,79.9704,39.9852,13.3284,133.284,,,
